[
  {
    "device_name": "Bin 03",
    "device_reference": "8988228066602411821",
    "status": "problem",
    "metadata": {
      "operation_suggested": "shim"
    },
    "deviceContent": "animal feed",
    "capa_max": 9,
    "device_id": "841b813a-0f06-4381-865e-276dd89f9bee",
    "device_install_date": "2022-08-23T16:27:59.399Z",
    "device_last_delivery": "2022-10-31T00:00:00.000Z",
    "position": {
      "timestamp": "2022-12-16T17:56:37.960Z",
      "position_latitude": 43.730993708807546,
      "position_longitude": -80.75543914863975,
      "position_radius": null
    },
    "is_combined": true,
    "lastMessageReceived": "2022-12-16T16:11:56.000Z",
    "last_calibration": {
      "timestamp": "2022-10-31T13:45:01.000Z",
      "value": 0.1
    },
    "group_poi": {
      "group_poi_name": "Daryl Kuepfer",
      "group_poi_id": "84bfcefe-2835-492e-9ba7-4655074cd1b2"
    },
    "levels": [
      {
        "timestamp": "2022-12-16T16:11:56.000Z",
        "level_percent": 50,
        "level_t": 4.462,
        "level_kg": 4462,
        "missingWeight": 84
      },
      {
        "timestamp": "2022-12-17T00:00:00.000Z",
        "level_percent": 47,
        "level_kg": 4225,
        "level_t": 4.2
      },
      {
        "timestamp": "2022-12-18T00:00:00.000Z",
        "level_percent": 44,
        "level_kg": 3987,
        "level_t": 4
      },
      {
        "timestamp": "2022-12-19T00:00:00.000Z",
        "level_percent": 42,
        "level_kg": 3750,
        "level_t": 3.8
      },
      {
        "timestamp": "2022-12-20T00:00:00.000Z",
        "level_percent": 39,
        "level_kg": 3512,
        "level_t": 3.5
      }
    ],
    "max_15days": 35,
    "mean_15days": 15,
    "remaining_days": 19,
    "alerts": [],
    "devicesCombined": [
      {
        "device_name": "Silo 1",
        "device_reference": "C20A1A",
        "status": "ok",
        "capa_max": 18,
        "metadata": null,
        "device_id": "9f9d839d-cd7f-4d38-9e29-4acf4622bbe6",
        "is_fake": false,
        "is_combined": false,
        "device_install_date": "2021-02-19T09:33:22.699Z",
        "device_last_delivery": "2021-05-25T00:00:00.000Z",
        "next_delivery": null,
        "deviceContent": "PONTE PHASE 4 BBC",
        "levels": [
          {
            "timestamp": "2023-06-14T22:02:34.000Z",
            "level_percent": 11,
            "level_t": 1.892,
            "level_kg": 1892,
            "missingWeight": 14.308
          }
        ]
      },
      {
        "device_name": "Silo 2",
        "device_reference": "C203CE",
        "capa_max": 19,
        "status": "pending",
        "metadata": {
          "info_to_calibrate": "missing_level_delivery"
        },
        "device_id": "f9e9eba9-cd37-47cd-974a-d9760341c849",
        "is_fake": false,
        "is_combined": false,
        "device_install_date": "2021-02-19T09:33:48.174Z",
        "device_last_delivery": "2021-05-25T00:00:00.000Z",
        "next_delivery": null,
        "levels": [
          {
            "timestamp": "2023-06-14T21:54:30.000Z",
            "level_percent": 63,
            "level_t": 11.991,
            "level_kg": 11991,
            "missingWeight": 5.109
          }
        ]
      },
      {
        "device_name": "Silo 2",
        "device_reference": "C203CE",
        "capa_max": 19,
        "status": "problem",
        "metadata": null,
        "device_id": "f9e9eba9-cd37-47cd-974a-d9760341c849",
        "is_fake": false,
        "is_combined": false,
        "device_install_date": "2021-02-19T09:33:48.174Z",
        "device_last_delivery": "2021-05-25T00:00:00.000Z",
        "next_delivery": null,
        "levels": [
          {
            "timestamp": "2023-06-14T21:54:30.000Z",
            "level_percent": 63,
            "level_t": 11.991,
            "level_kg": 11991,
            "missingWeight": 5.109
          }
        ]
      },
      {
        "device_name": "Silo 2",
        "device_reference": "C203CE",
        "capa_max": 19,
        "status": "calibrating",
        "device_id": "f9e9eba9-cd37-47cd-974a-d9760341c849",
        "is_fake": false,
        "is_combined": false,
        "device_install_date": "2021-02-19T09:33:48.174Z",
        "device_last_delivery": "2021-05-25T00:00:00.000Z",
        "next_delivery": null,
        "levels": [
          {
            "timestamp": "2023-06-14T21:54:30.000Z",
            "level_percent": 63,
            "level_t": 11.991,
            "level_kg": 11991,
            "missingWeight": 5.109
          }
        ]
      },
      {
        "device_name": "Silo 2",
        "device_reference": "C203CE",
        "capa_max": 19,
        "status": "error",
        "metadata": {
          "operation_suggested": "out_of_data"
        },
        "device_id": "f9e9eba9-cd37-47cd-974a-d9760341c849",
        "is_fake": false,
        "is_combined": false,
        "device_install_date": "2021-02-19T09:33:48.174Z",
        "device_last_delivery": "2021-05-25T00:00:00.000Z",
        "next_delivery": null,
        "levels": [
          {
            "timestamp": "2023-06-14T21:54:30.000Z",
            "level_percent": 63,
            "level_t": 11.991,
            "level_kg": 11991,
            "missingWeight": 5.109
          }
        ]
      },
      {
        "device_name": "Silo 2",
        "device_reference": "C203CE",
        "capa_max": 19,
        "status": "error",
        "metadata": {
          "operation_suggested": "trapped_in_ice"
        },
        "device_id": "f9e9eba9-cd37-47cd-974a-d9760341c849",
        "is_fake": false,
        "is_combined": false,
        "device_install_date": "2021-02-19T09:33:48.174Z",
        "device_last_delivery": "2021-05-25T00:00:00.000Z",
        "next_delivery": null,
        "levels": [
          {
            "timestamp": "2023-06-14T21:54:30.000Z",
            "level_percent": 63,
            "level_t": 11.991,
            "level_kg": 11991,
            "missingWeight": 5.109
          }
        ]
      }
    ]
  }
]