[
	{
		"device_content": "Feed 1",
		"id": "00d5f64f-4a57-49d9-8f2a-2a46b663eee9",
		"device_content_reference": null,
		"contract_number": null,
		"groups": [
			{
				"group_id": "e07791c2-054e-449f-8fe1-b8805d31a8f4",
				"group_name": "Meuneries de Pierre Tremblay",
				"address_street": "",
				"address_town": "",
				"address_zipcode": "",
				"order_recipient_emails": [],
				"is_poi": true,
				"are_contents_exclusive": false,
				"client_poi_id": null,
				"comment": null
			}
		]
	},
	{
		"device_content": "Feed 2",
		"id": "5c601fe3-d8bb-47f0-af74-f60c0f324667",
		"device_content_reference": null,
		"contract_number": null,
		"groups": [
			{
				"group_id": "9acb511b-28f3-443b-9633-46370fb070a0",
				"group_name": "Sarah Smith Farm",
				"address_street": "",
				"address_town": "",
				"address_zipcode": "",
				"order_recipient_emails": [],
				"is_poi": true,
				"are_contents_exclusive": false,
				"client_poi_id": null,
				"comment": null
			}
		]
	},
	{
		"device_content": "GESTA - Type 1",
		"id": "af72fd0b-2666-4867-8557-4c57a52d9fc1",
		"device_content_reference": null,
		"contract_number": null,
		"groups": [
			{
				"group_id": "9acb511b-28f3-443b-9633-46370fb070a0",
				"group_name": "Sarah Smith Farm",
				"address_street": "",
				"address_town": "",
				"address_zipcode": "",
				"order_recipient_emails": [],
				"is_poi": true,
				"are_contents_exclusive": false,
				"client_poi_id": null,
				"comment": null
			}
		]
	},
	{
		"device_content": "GESTA - Type 2",
		"id": "b2851b52-6cf5-49bc-a579-44e0fc01b671",
		"device_content_reference": null,
		"contract_number": null,
		"groups": [
			{
				"group_id": "e07791c2-054e-449f-8fe1-b8805d31a8f4",
				"group_name": "Meuneries de Pierre Tremblay",
				"address_street": "",
				"address_town": "",
				"address_zipcode": "",
				"order_recipient_emails": [],
				"is_poi": true,
				"are_contents_exclusive": false,
				"client_poi_id": null,
				"comment": null
			},
			{
				"group_id": "55c1ca6d-82ba-4aee-9050-079eb3189c46",
				"group_name": "Laurent Dupont",
				"address_street": null,
				"address_town": null,
				"address_zipcode": null,
				"order_recipient_emails": [],
				"is_poi": true,
				"are_contents_exclusive": false,
				"client_poi_id": null,
				"comment": null
			},
			{
				"group_id": "ff4d8901-7347-4123-a070-ed21dbe393bc",
				"group_name": "John Doe Farm",
				"address_street": null,
				"address_town": null,
				"address_zipcode": null,
				"order_recipient_emails": [],
				"is_poi": true,
				"are_contents_exclusive": false,
				"client_poi_id": null,
				"comment": null
			},
			{
				"group_id": "9acb511b-28f3-443b-9633-46370fb070a0",
				"group_name": "Sarah Smith Farm",
				"address_street": "",
				"address_town": "",
				"address_zipcode": "",
				"order_recipient_emails": [],
				"is_poi": true,
				"are_contents_exclusive": false,
				"client_poi_id": null,
				"comment": null
			}
		]
	},
	{
		"device_content": "HOG GROWER",
		"id": "6644852c-34dc-4a5f-9bdc-9cc4a55c5ccd",
		"device_content_reference": null,
		"contract_number": null,
		"groups": [
			{
				"group_id": "e1e0d71b-27ca-43ee-b33e-130cc510af0a",
				"group_name": "Wilson Farm",
				"address_street": null,
				"address_town": null,
				"address_zipcode": null,
				"order_recipient_emails": [],
				"is_poi": true,
				"are_contents_exclusive": false,
				"client_poi_id": null,
				"comment": null
			}
		]
	},
	{
		"device_content": "Lacta 4",
		"id": "b1226606-2407-4a2e-83f9-2e61959a121e",
		"device_content_reference": null,
		"contract_number": null,
		"groups": [
			{
				"group_id": "4a185604-7601-440d-873c-9caf366ebd6c",
				"group_name": "Granja de Juan Perez",
				"address_street": "",
				"address_town": "",
				"address_zipcode": "",
				"order_recipient_emails": [],
				"is_poi": true,
				"are_contents_exclusive": false,
				"client_poi_id": null,
				"comment": null
			}
		]
	},
	{
		"device_content": "LACTA PLUS A",
		"id": "ef925e4e-11a9-4e5a-b767-36a2467a0b35",
		"device_content_reference": null,
		"contract_number": null,
		"groups": [
			{
				"group_id": "ff4d8901-7347-4123-a070-ed21dbe393bc",
				"group_name": "John Doe Farm",
				"address_street": null,
				"address_town": null,
				"address_zipcode": null,
				"order_recipient_emails": [],
				"is_poi": true,
				"are_contents_exclusive": false,
				"client_poi_id": null,
				"comment": null
			}
		]
	},
	{
		"device_content": "LACTA PLUS B",
		"id": "b8126874-baac-4b0f-ada1-3bf38f0a3745",
		"device_content_reference": null,
		"contract_number": null,
		"groups": [
			{
				"group_id": "ff4d8901-7347-4123-a070-ed21dbe393bc",
				"group_name": "John Doe Farm",
				"address_street": null,
				"address_town": null,
				"address_zipcode": null,
				"order_recipient_emails": [],
				"is_poi": true,
				"are_contents_exclusive": false,
				"client_poi_id": null,
				"comment": null
			}
		]
	},
	{
		"device_content": "MOULEE GESTA 1",
		"id": "e7c8f0ab-f5f8-40ae-af6e-e026a6964d6a",
		"device_content_reference": null,
		"contract_number": null,
		"groups": [
			{
				"group_id": "ff4d8901-7347-4123-a070-ed21dbe393bc",
				"group_name": "John Doe Farm",
				"address_street": null,
				"address_town": null,
				"address_zipcode": null,
				"order_recipient_emails": [],
				"is_poi": true,
				"are_contents_exclusive": false,
				"client_poi_id": null,
				"comment": null
			}
		]
	},
	{
		"device_content": "MOULEE GESTA 2",
		"id": "85d36cb2-deb6-477e-938c-119512b8bd60",
		"device_content_reference": null,
		"contract_number": null,
		"groups": [
			{
				"group_id": "ff4d8901-7347-4123-a070-ed21dbe393bc",
				"group_name": "John Doe Farm",
				"address_street": null,
				"address_town": null,
				"address_zipcode": null,
				"order_recipient_emails": [],
				"is_poi": true,
				"are_contents_exclusive": false,
				"client_poi_id": null,
				"comment": null
			}
		]
	},
	{
		"device_content": "Opti 3",
		"id": "ffe57d5f-8b34-4455-9658-b9a6beacd78b",
		"device_content_reference": null,
		"contract_number": null,
		"groups": [
			{
				"group_id": "9acb511b-28f3-443b-9633-46370fb070a0",
				"group_name": "Sarah Smith Farm",
				"address_street": "",
				"address_town": "",
				"address_zipcode": "",
				"order_recipient_emails": [],
				"is_poi": true,
				"are_contents_exclusive": false,
				"client_poi_id": null,
				"comment": null
			}
		]
	},
	{
		"device_content": "PIG GROWER",
		"id": "f7807ec1-9acb-4fd7-acea-9e106b5c5d49",
		"device_content_reference": null,
		"contract_number": null,
		"groups": [
			{
				"group_id": "e1e0d71b-27ca-43ee-b33e-130cc510af0a",
				"group_name": "Wilson Farm",
				"address_street": null,
				"address_town": null,
				"address_zipcode": null,
				"order_recipient_emails": [],
				"is_poi": true,
				"are_contents_exclusive": false,
				"client_poi_id": null,
				"comment": null
			}
		]
	},
	{
		"device_content": "PIG STARTER 1",
		"id": "85163764-44a8-411a-9d7c-14da36656e9f",
		"device_content_reference": null,
		"contract_number": null,
		"groups": [
			{
				"group_id": "dec15d72-0849-4f49-a891-cc72639550fb",
				"group_name": "Robin Farm",
				"address_street": null,
				"address_town": null,
				"address_zipcode": null,
				"order_recipient_emails": [],
				"is_poi": true,
				"are_contents_exclusive": false,
				"client_poi_id": null,
				"comment": null
			}
		]
	},
	{
		"device_content": "POULET STD",
		"id": "10893b32-da33-484f-89e4-b78e78aa7513",
		"device_content_reference": null,
		"contract_number": null,
		"groups": [
			{
				"group_id": "013b0975-e9fb-4878-831c-f4811d84b133",
				"group_name": "Ferme A",
				"address_street": null,
				"address_town": null,
				"address_zipcode": null,
				"order_recipient_emails": [],
				"is_poi": true,
				"are_contents_exclusive": false,
				"client_poi_id": null,
				"comment": null
			}
		]
	},
	{
		"device_content": "TURKEY PHASE 1",
		"id": "c8256c33-4146-4efc-87c3-a484089165bb",
		"device_content_reference": null,
		"contract_number": null,
		"groups": [
			{
				"group_id": "e07791c2-054e-449f-8fe1-b8805d31a8f4",
				"group_name": "Meuneries de Pierre Tremblay",
				"address_street": "",
				"address_town": "",
				"address_zipcode": "",
				"order_recipient_emails": [],
				"is_poi": true,
				"are_contents_exclusive": false,
				"client_poi_id": null,
				"comment": null
			}
		]
	},
	{
		"device_content": "TURKEY PHASE 2",
		"id": "e11215cb-e36c-4fc0-b96e-2d9430180dd7",
		"device_content_reference": null,
		"contract_number": null,
		"groups": [
			{
				"group_id": "e68a0714-2c09-4827-b0b7-f094ec9ebaaa",
				"group_name": "Fazenda Diaz",
				"address_street": null,
				"address_town": null,
				"address_zipcode": null,
				"order_recipient_emails": [],
				"is_poi": true,
				"are_contents_exclusive": false,
				"client_poi_id": null,
				"comment": null
			}
		]
	}
]