{
	"results": [
		{
			"supplement": "koukou"
		},
		{
			"supplement": "plop"
		},
		{
			"supplement": "supp pem 1"
		},
		{
			"supplement": "supp pem 2"
		},
		{
			"supplement": "supp pem 3"
		},
		{
			"supplement": "supp pem 4"
		}
	],
	"page": 1,
	"pageSize": 6,
	"rowCount": 6,
	"pageCount": 1
}